…
Let’s start with a for loop.

``` r
output = vector("list", length = 100)

for (i in 1:100) {
  
  output[[i]] = sim_mean_sd(samp_size = 30)
  
}

bind_rows(output)
```

    ## # A tibble: 100 × 2
    ##     mean    sd
    ##    <dbl> <dbl>
    ##  1  4.22  3.03
    ##  2  2.56  3.73
    ##  3  3.51  3.44
    ##  4  4.01  4.31
    ##  5  3.07  3.88
    ##  6  2.41  3.87
    ##  7  2.03  4.36
    ##  8  3.53  4.34
    ##  9  2.30  3.70
    ## 10  1.79  3.90
    ## # ℹ 90 more rows
…
